{
    "title": "Сотрудники",
    "items": [
        {
            "name": "Сергей Сафронов",
            "job": "Директор компании",
            "location": ["Офис", "Ташкент"],
            "rate": ["Стоимость консультации", "$200/час"],
            "spec": ["Специализация", "Иммиграционное законодательство"],
            "url": ["Записаться на встречу", "https://calendly.com/astalavisa-official/gz"],
            "photo": "images/ss.png"
        },
        {
            "name": "Полина",
            "job": "Отдел виз",
            "location": ["Офис", "Санкт-Петербург"],
            "rate": ["Стоимость консультации", "$50/час"],
            "spec": ["Специализация", "Австралия, Канада"],
            "url": ["Записаться на встречу", "https://calendly.com/astalavisa-official/gz"],
            "photo": "images/polina.jpg"
        },
        {
            "name": "Анастасия",
            "job": "Отдел виз",
            "location": ["Офис", "Санкт-Петербург"],
            "rate": ["Стоимость консультации", "Бесплатно"],
            "spec": ["Специализация", "Шенген, США"],
            "url": ["Записаться на встречу", "https://calendly.com/astalavisa-official/gz"],
            "photo": "images/anastasia.jpg"
        },
        {
            "name": "Роксана",
            "job": "Отдел виз",
            "location": ["Офис", "Ташкент"],
            "rate": ["Стоимость консультации", "Бесплатно"],
            "spec": ["Специализация", "Австралия, Канада, Шенген, США"],
            "url": ["Записаться на встречу", "https://calendly.com/astalavisa-official/gz"],
            "photo": "images/roxy.jpg"
        }        
    ]
}